<?xml version="1.0"?>
<svg width="300" height="200" xmlns="http://www.w3.org/2000/svg">
 <!-- Created with SVG-edit - http://svg-edit.googlecode.com/ -->

 <g>
  <title>Layer 1</title>
  <path id="svg_45" d="m104.5,188.5l54,-85l20,84l-22,-17l-21,-2l-31,20z" stroke-linecap="null" stroke-linejoin="null" stroke-dasharray="null" stroke-width="5" stroke="#000000" fill="#082d5b"/>
  <path id="svg_23" d="m46,16l-9,75l24,-30l34,-3l11,-36l-27,-14l-33,8z" stroke-linecap="null" stroke-linejoin="null" stroke-dasharray="null" stroke-width="5" stroke="#000000" fill="#082d5b"/>
  <path id="svg_5" d="m204,185l27,-83l23,55l25,-55l14,15l-43,64l-16,-25l-30,29z" stroke-linecap="null" stroke-linejoin="null" stroke-dasharray="null" stroke-width="5" stroke="#000000" fill="#082d5b"/>
  <!-- Created with SVG-edit - http://svg-edit.googlecode.com/ -->
  <path fill="#082d5b" stroke="#000000" stroke-width="5" stroke-dasharray="null" stroke-linejoin="null" stroke-linecap="null" d="m57.798767,101.05172l-51.593122,82.996727l17.197708,1.596085l8.224983,-19.153076l16.449995,0.798035l7.477249,18.355042l14.20681,-7.980469l-11.963623,-76.612343z" id="svg_39"/>
  <path fill="#082d5b" stroke="#000000" stroke-width="5" stroke-dasharray="null" stroke-linejoin="null" stroke-linecap="null" d="m112.45723,100.194954l-45.466103,8.640648l14.510452,77.765717l38.694588,0l11.608337,-36.722687l-26.11882,-5.400421l9.673653,22.681671l-23.216759,-3.240234l-6.771515,-45.363335l44.498718,2.160149l-17.412552,-20.521507z" id="svg_36"/>
  <path fill="#082d5b" stroke="#000000" stroke-width="5" stroke-dasharray="null" stroke-linejoin="null" stroke-linecap="null" d="m199.151962,104.051147l-15.055374,80.421051l11.709732,-2.773163l15.055374,-73.950378l-11.709732,-3.69751z" id="svg_35"/>
  <path fill="#082d5b" stroke="#000000" stroke-width="5" stroke-dasharray="null" stroke-linejoin="null" stroke-linecap="null" d="m117.513268,16.922951l-39.823845,76.883614l69.691711,-4.937485l2.715271,-12.696373l-41.634018,0.705353l23.532272,-56.428333l-14.481392,-3.526775z" id="svg_34"/>
  <path id="svg_46" fill="#082d5b" stroke="#000000" stroke-width="5" stroke-dasharray="null" stroke-linejoin="null" stroke-linecap="null" d="m200.314392,9.704063l-51.593124,82.996727l17.197708,1.596085l8.224976,-19.153076l16.450012,0.798035l7.477234,18.355042l14.206818,-7.980469l-11.963623,-76.612343z"/>
  <path id="svg_47" d="m202,20.5l26,32l12,37l4.5,-36.5l24.5,-44.5l-32,26l-35,-14z" stroke-linecap="null" stroke-linejoin="null" stroke-dasharray="null" stroke-width="5" stroke="#000000" fill="#082d5b"/>
 </g>
</svg>