<?xml version="1.0"?>
<svg width="100" height="60" xmlns="http://www.w3.org/2000/svg">
 <!-- Created with SVG-edit - http://svg-edit.googlecode.com/ -->

 <g>
  <title>Sun Chest</title>
  <rect fill="#60411c" stroke="#442a14" stroke-width="2" stroke-dasharray="null" stroke-linejoin="null" stroke-linecap="null" x="5" y="22.900002" width="68" height="33" id="front"/>
  <path fill="#60411c" stroke="#442a14" stroke-width="2" stroke-dasharray="null" stroke-linejoin="null" stroke-linecap="null" d="m22.886269,4.35714l67.400009,0l-17.599998,18l-67.400009,0l17.599997,-18l0.000002,0z" id="lid"/>
  <path fill="#60411c" stroke="#442a14" stroke-width="2" stroke-dasharray="null" stroke-linejoin="null" stroke-linecap="null" d="m74.285156,22.5l17,-17l0,31l-17,18l0,-32z" id="side"/>
  <g id="svg_10">
   <ellipse ry="9.5" rx="9.5" id="svg_1" cy="32.400913" cx="41.5" stroke-linecap="null" stroke-linejoin="null" stroke-dasharray="null" stroke-width="null" stroke="#3f220a" fill="#b58e41"/>
   <path id="svg_2" d="m38.714256,20.782139l2.266663,-8.924996l2.733337,9.000001l-5,-0.075005z" stroke-linecap="null" stroke-linejoin="null" stroke-dasharray="null" stroke-width="null" stroke="#3f220a" fill="#b58e41"/>
   <path transform="rotate(90, 57.605, 32.3929)" id="svg_4" d="m55.106834,36.817577l2.266663,-8.924995l2.733337,9l-5,-0.075005z" stroke-linecap="null" stroke-linejoin="null" stroke-dasharray="null" stroke-width="null" stroke="#3f220a" fill="#b58e41"/>
   <path transform="rotate(180, 42, 47.8571)" id="svg_3" d="m39.499413,52.283817l2.266663,-8.924995l2.733337,9l-5,-0.075005z" stroke-linecap="null" stroke-linejoin="null" stroke-dasharray="null" stroke-width="null" stroke="#3f220a" fill="#b58e41"/>
   <path id="svg_7" transform="rotate(45, 52.7667, 21.2054)" d="m50.268639,25.62896l2.266663,-8.924995l2.733337,9l-5,-0.075005z" stroke-linecap="null" stroke-linejoin="null" stroke-dasharray="null" stroke-width="null" stroke="#3f220a" fill="#b58e41"/>
   <path id="svg_8" transform="rotate(135, 52.9414, 43.7667)" d="m50.440514,48.19257l2.266663,-8.924995l2.733337,9l-5,-0.075005z" stroke-linecap="null" stroke-linejoin="null" stroke-dasharray="null" stroke-width="null" stroke="#3f220a" fill="#b58e41"/>
   <path id="svg_6" transform="rotate(-45, 30, 21.1429)" d="m27.50193,25.568138l2.266663,-8.924995l2.733337,9l-5,-0.075005z" stroke-linecap="null" stroke-linejoin="null" stroke-dasharray="null" stroke-width="null" stroke="#3f220a" fill="#b58e41"/>
   <path id="svg_5" transform="rotate(-90, 25.6767, 32.1786)" d="m23.177689,36.604969l2.266663,-8.924995l2.733337,9l-5,-0.075005z" stroke-linecap="null" stroke-linejoin="null" stroke-dasharray="null" stroke-width="null" stroke="#3f220a" fill="#b58e41"/>
   <path id="svg_9" transform="rotate(-135, 30.3722, 43.6557)" d="m27.871353,48.082634l2.266663,-8.924995l2.733337,9l-5,-0.075005z" stroke-linecap="null" stroke-linejoin="null" stroke-dasharray="null" stroke-width="null" stroke="#3f220a" fill="#b58e41"/>
  </g>
 </g>
</svg>